Keystone exercise: Estuary Fish Survey - Data Rescue Mission
…
cleancatch_data <- catch_data %>%  
  mutate(site = str_to_sentence(site), # Standardizing site names
         site = str_trim(site), 
         site = str_replace_all(site, pattern = " ", replacement = "_")) %>%  
  mutate(species = str_to_sentence(species), # Standardizing species
         species = str_trim(species), 
         species = str_replace_all(species, pattern = " ", replacement = "_")) %>% 
  rename(common_name = species) %>% #to merge with species dictionary
  mutate(date = ymd(date)) %>% # Standardizing dates
  tidyr::complete(site, date, common_name, fill = list(count = 0)) #ensures that if no data was recorded, a 0 is in the place where the data should have been recorded

print(cleancatch_data)

# A tibble: 480 × 4
   site       date       common_name   count
   <chr>      <date>     <chr>         <dbl>
 1 Lower_ross 2026-05-01 Barramundi        6
 2 Lower_ross 2026-05-01 Bream             4
 3 Lower_ross 2026-05-01 Flathead          2
 4 Lower_ross 2026-05-01 Mangrove_jack     3
 5 Lower_ross 2026-05-02 Barramundi        1
 6 Lower_ross 2026-05-02 Bream             3
 7 Lower_ross 2026-05-02 Flathead          3
 8 Lower_ross 2026-05-02 Mangrove_jack     1
 9 Lower_ross 2026-05-03 Barramundi        0
10 Lower_ross 2026-05-03 Bream             0
# ℹ 470 more rows
…
    common_name           scientific_name
1    Barramundi          Lates calcarifer
2 Mangrove_jack Lutjanus argentimaculatus
3         Bream        Acanthopagrus spp.
4      Flathead        Platycephalus spp.

# Joining the Fish data
merge_catchspecies <- cleancatch_data %>% 
  left_join(species_dictionary, by = join_by(common_name))

print(merge_catchspecies)

# A tibble: 480 × 5
   site       date       common_name   count scientific_name          
   <chr>      <date>     <chr>         <dbl> <chr>                    
 1 Lower_ross 2026-05-01 Barramundi        6 Lates calcarifer         
 2 Lower_ross 2026-05-01 Bream             4 Acanthopagrus spp.       
 3 Lower_ross 2026-05-01 Flathead          2 Platycephalus spp.       
 4 Lower_ross 2026-05-01 Mangrove_jack     3 Lutjanus argentimaculatus
 5 Lower_ross 2026-05-02 Barramundi        1 Lates calcarifer         
 6 Lower_ross 2026-05-02 Bream             3 Acanthopagrus spp.       
 7 Lower_ross 2026-05-02 Flathead          3 Platycephalus spp.       
 8 Lower_ross 2026-05-02 Mangrove_jack     1 Lutjanus argentimaculatus
 9 Lower_ross 2026-05-03 Barramundi        0 Lates calcarifer         
10 Lower_ross 2026-05-03 Bream             0 Acanthopagrus spp.       
# ℹ 470 more rows

# Joining environmental data
merge_metasensor <- daily_sensordata %>% 
  left_join(clean_metadata, by = join_by(site))

print(merge_metasensor)

# A tibble: 120 × 8
   site   date       daymean_temp daymean_salinity daymean_turbidity   lat   lon
   <chr>  <date>            <dbl>            <dbl>             <dbl> <dbl> <dbl>
 1 Lower… 2026-05-01         23.8             28.4              27.9 -19.3  147.
 2 Lower… 2026-05-02         24.0             27.7              24.1 -19.3  147.
 3 Lower… 2026-05-03         24.2             28.1              20.6 -19.3  147.
 4 Lower… 2026-05-04         24.0             28.2              28.4 -19.3  147.
 5 Lower… 2026-05-05         23.9             27.6              26.7 -19.3  147.
 6 Lower… 2026-05-06         24.0             28.2              24.0 -19.3  147.
 7 Lower… 2026-05-07         24.0             27.6              25.1 -19.3  147.
 8 Lower… 2026-05-08         24.0             28.0              25.9 -19.3  147.
 9 Lower… 2026-05-09         24.0             27.8              24.6 -19.3  147.
10 Lower… 2026-05-10         23.9             28.1              26.2 -19.3  147.
# ℹ 110 more rows
# ℹ 1 more variable: zone <chr>
…
